{
  "id" : "d16525b7-942f-4a16-89da-afc93c722c72",
  "name" : "concepts",
  "request" : {
    "url" : "/concepts?orgPath=/STAT/912660680",
    "method" : "GET"
  },
  "response" : {
    "status" : 200,
    "body" : "{\n  \"_embedded\" : {\n    \"concepts\" : [ {\n      \"id\" : \"5cd09fd8-0ac9-494a-b49e-3fa68ef9bb30\",\n      \"uri\" : \"https://fellesdatakatalog.brreg.no/api/concepts/5cd09fd8-0ac9-494a-b49e-3fa68ef9bb30\",\n      \"identifier\" : \"http://data.brreg.no/begrep/32686\",\n      \"application\" : [ ],\n      \"definition\" : {\n        \"text\" : {\n          \"nb\" : \"en liste over støtteformål som er forhåndsgodkjent av ESA, og som derfor anses som gyldig støtte\"\n        },\n        \"remark\" : {\n          \"nb\" : \"I utgangspunktet er tildeling av offentlig støtte ikke lovlig, men EU har opprettet et lovverk med unntakstilfeller.\"\n        },\n        \"source\" : {\n          \"prefLabel\" : {\n            \"nb\" : \"Regjeringen.no (2019). Det alminnelige gruppeunntaket (GBER) [Internett]. Tilgjengelig fra https://www.regjeringen.no/no/tema/naringsliv/konkurransepolitikk/regler-om-offentlig-stotte-listeside/offentlig-stotte-gruppeunntak/id430132/ \"\n          }\n        },\n        \"sourceRelationship\" : \"basertPåKilde\",\n        \"sources\" : [ {\n          \"text\" : {\n            \"nb\" : \"Regjeringen.no (2019). Det alminnelige gruppeunntaket (GBER) [Internett]. Tilgjengelig fra https://www.regjeringen.no/no/tema/naringsliv/konkurransepolitikk/regler-om-offentlig-stotte-listeside/offentlig-stotte-gruppeunntak/id430132/ \"\n          }\n        } ]\n      },\n      \"subject\" : {\n        \"nb\" : \"Register for offentlig støtte\"\n      },\n      \"prefLabel\" : {\n        \"nb\" : \"det alminnelige gruppeunntaket \"\n      },\n      \"altLabel\" : [ {\n        \"nb\" : \"GBER, Gruppeunntaksforordningen, Kommisjonsforordning nr. 651/2014\"\n      } ],\n      \"hiddenLabel\" : [ ],\n      \"contactPoint\" : {\n        \"email\" : \"informasjonsforvaltning@brreg.no\",\n        \"telephone\" : \"+4775007500\"\n      },\n      \"seeAlso\" : [ ],\n      \"publisher\" : {\n        \"uri\" : \"http://data.brreg.no/enhetsregisteret/enhet/974760673\",\n        \"name\" : \"REGISTERENHETEN I BRØNNØYSUND\",\n        \"orgPath\" : \"/STAT/912660680/974760673\",\n        \"prefLabel\" : {\n          \"no\" : \"REGISTERENHETEN I BRØNNØYSUND\"\n        }\n      },\n      \"harvest\" : {\n        \"firstHarvested\" : \"2020-03-05T06:09:22.400+0000\",\n        \"lastHarvested\" : \"2020-05-20T06:00:10.444+0000\"\n      }\n    }, {\n      \"id\" : \"13dbd4a3-4aff-498c-abdd-61d8f7d6fc40\",\n      \"uri\" : \"https://fellesdatakatalog.brreg.no/api/concepts/13dbd4a3-4aff-498c-abdd-61d8f7d6fc40\",\n      \"identifier\" : \"http://data.brreg.no/begrep/48786\",\n      \"application\" : [ ],\n      \"definition\" : {\n        \"text\" : {\n          \"nb\" : \"ethvert dokument som gir uttrykk for en panterett, stiftet ved avtale\"\n        },\n        \"remark\" : {\n          \"nb\" : \"Pantedokumentet kan være et gjeldsbrev som i så fall er undertegnet av den som har lånt kapitalen, skyldneren, og er en sikkerhet for at den som har lånt ut kapitalen, panthaveren, skal få tilbake kapitalen. I Løsøreregisteret tinglyses det pantedokumenter med pant i driftstilbehør, jernbanemateriell, varelager, fiskeredskaper, motorvogn og anleggsmaskiner og redskaper, besetning, avling mv. i landbruksnæring.\"\n        },\n        \"source\" : {\n          \"prefLabel\" : {\n            \"nb\" : \"Tinglysingsloven § 36. Lov 7. juni 1935 nr. 2 om tinglysing. Tilgjengelig fra https://lovdata.no/NL/lov/1935-06-07-2/ \"\n          }\n        },\n        \"sourceRelationship\" : \"sitatFraKilde\",\n        \"sources\" : [ {\n          \"text\" : {\n            \"nb\" : \"Tinglysingsloven § 36. Lov 7. juni 1935 nr. 2 om tinglysing. Tilgjengelig fra https://lovdata.no/NL/lov/1935-06-07-2/ \"\n          }\n        } ]\n      },\n      \"subject\" : {\n        \"nb\" : \"Tinglysing\"\n      },\n      \"prefLabel\" : {\n        \"nb\" : \"pantedokument\"\n      },\n      \"altLabel\" : [ ],\n      \"hiddenLabel\" : [ ],\n      \"contactPoint\" : {\n        \"email\" : \"informasjonsforvaltning@brreg.no\",\n        \"telephone\" : \"+4775007500\"\n      },\n      \"seeAlso\" : [ ],\n      \"publisher\" : {\n        \"uri\" : \"http://data.brreg.no/enhetsregisteret/enhet/974760673\",\n        \"name\" : \"REGISTERENHETEN I BRØNNØYSUND\",\n        \"orgPath\" : \"/STAT/912660680/974760673\",\n        \"prefLabel\" : {\n          \"no\" : \"REGISTERENHETEN I BRØNNØYSUND\"\n        }\n      },\n      \"harvest\" : {\n        \"firstHarvested\" : \"2019-04-02T10:00:03.159+0000\",\n        \"lastHarvested\" : \"2020-05-20T06:00:10.300+0000\"\n      }\n    }, {\n      \"id\" : \"d45424f6-deb1-4768-8bfe-864b71b25b0b\",\n      \"uri\" : \"https://fellesdatakatalog.brreg.no/api/concepts/d45424f6-deb1-4768-8bfe-864b71b25b0b\",\n      \"identifier\" : \"http://data.brreg.no/begrep/51736\",\n      \"application\" : [ ],\n      \"definition\" : {\n        \"text\" : {\n          \"nb\" : \"en bokstav og fire siffer som entydig identifiserer den enkelte bruksenheten innenfor en adresserbar bygning eller bygningsdel\"\n        },\n        \"remark\" : {\n          \"nb\" : \"Alle leiligheter skal ha sin egen adresse, på lik linje med eneboliger.\"\n        },\n        \"source\" : {\n          \"prefLabel\" : {\n            \"nb\" : \"Direktoratet for forvaltning og IKT. Adresse - felles informasjonsmodell. Oppdatert 6. desember 2017. Tilgjengelig fra: https://www.difi.no/fagomrader-og-tjenester/digitalisering-og-samordning/nasjonal-arkitektur/informasjonsforvaltning/adresse-felles-informasjonsmodell\"\n          }\n        },\n        \"sourceRelationship\" : \"sitatFraKilde\",\n        \"sources\" : [ {\n          \"text\" : {\n            \"nb\" : \"Direktoratet for forvaltning og IKT. Adresse - felles informasjonsmodell. Oppdatert 6. desember 2017. Tilgjengelig fra: https://www.difi.no/fagomrader-og-tjenester/digitalisering-og-samordning/nasjonal-arkitektur/informasjonsforvaltning/adresse-felles-informasjonsmodell\"\n          }\n        } ]\n      },\n      \"subject\" : {\n        \"nb\" : \"Adresse\"\n      },\n      \"prefLabel\" : {\n        \"nb\" : \"bruksenhetsnummer\"\n      },\n      \"altLabel\" : [ {\n        \"nb\" : \"bolignummer\"\n      } ],\n      \"hiddenLabel\" : [ ],\n      \"contactPoint\" : {\n        \"email\" : \"informasjonsforvaltning@brreg.no\",\n        \"telephone\" : \"+4775007500\"\n      },\n      \"seeAlso\" : [ ],\n      \"publisher\" : {\n        \"uri\" : \"http://data.brreg.no/enhetsregisteret/enhet/974760673\",\n        \"name\" : \"REGISTERENHETEN I BRØNNØYSUND\",\n        \"orgPath\" : \"/STAT/912660680/974760673\",\n        \"prefLabel\" : {\n          \"no\" : \"REGISTERENHETEN I BRØNNØYSUND\"\n        }\n      },\n      \"harvest\" : {\n        \"firstHarvested\" : \"2019-04-02T10:00:03.159+0000\",\n        \"lastHarvested\" : \"2020-05-20T06:00:10.400+0000\"\n      }\n    }, {\n      \"id\" : \"de5b25ad-521f-4fbd-af51-7486129c6a6f\",\n      \"uri\" : \"https://fellesdatakatalog.brreg.no/api/concepts/de5b25ad-521f-4fbd-af51-7486129c6a6f\",\n      \"identifier\" : \"http://data.brreg.no/begrep/43615\",\n      \"application\" : [ ],\n      \"definition\" : {\n        \"text\" : {\n          \"nb\" : \"informasjon som en avsender trenger for å kommunisere med en mottaker \"\n        },\n        \"sourceRelationship\" : \"egendefinert\",\n        \"sources\" : [ ]\n      },\n      \"subject\" : {\n        \"nb\" : \"Enhetsregisteret\"\n      },\n      \"prefLabel\" : {\n        \"nb\" : \"kontaktinformasjon\"\n      },\n      \"altLabel\" : [ ],\n      \"hiddenLabel\" : [ ],\n      \"contactPoint\" : {\n        \"email\" : \"informasjonsforvaltning@brreg.no\",\n        \"telephone\" : \"+4775007500\"\n      },\n      \"seeAlso\" : [ ],\n      \"publisher\" : {\n        \"uri\" : \"http://data.brreg.no/enhetsregisteret/enhet/974760673\",\n        \"name\" : \"REGISTERENHETEN I BRØNNØYSUND\",\n        \"orgPath\" : \"/STAT/912660680/974760673\",\n        \"prefLabel\" : {\n          \"no\" : \"REGISTERENHETEN I BRØNNØYSUND\"\n        }\n      },\n      \"harvest\" : {\n        \"firstHarvested\" : \"2019-05-22T16:00:00.593+0000\",\n        \"lastHarvested\" : \"2020-05-20T06:00:10.367+0000\"\n      }\n    }, {\n      \"id\" : \"7f1d62a3-1e79-4fc9-a0ca-17cbe4a04dcd\",\n      \"uri\" : \"https://fellesdatakatalog.brreg.no/api/concepts/7f1d62a3-1e79-4fc9-a0ca-17cbe4a04dcd\",\n      \"identifier\" : \"http://data.brreg.no/begrep/40663\",\n      \"application\" : [ ],\n      \"definition\" : {\n        \"text\" : {\n          \"nb\" : \"begrep som betegner en del av et annet begrep\"\n        },\n        \"remark\" : {\n          \"nb\" : \"Et meronym er en relasjon mellom et begrep som betegner et element som er en del av et element betegnet av det relaterte begrepet.\\r\\n\\r\\nDen motsatte relasjonen kalles holonym.\"\n        },\n        \"source\" : {\n          \"prefLabel\" : {\n            \"nb\" : \"Norsk Wikipedia. Tilgjengelig fra https://no.wikipedia.org/wiki/Meronym\"\n          }\n        },\n        \"sourceRelationship\" : \"sitatFraKilde\",\n        \"sources\" : [ {\n          \"text\" : {\n            \"nb\" : \"Norsk Wikipedia. Tilgjengelig fra https://no.wikipedia.org/wiki/Meronym\"\n          }\n        } ]\n      },\n      \"subject\" : {\n        \"nb\" : \"Semantikk\"\n      },\n      \"prefLabel\" : {\n        \"nb\" : \"meronym\"\n      },\n      \"altLabel\" : [ {\n        \"nb\" : \"del av\"\n      } ],\n      \"hiddenLabel\" : [ ],\n      \"contactPoint\" : {\n        \"email\" : \"informasjonsforvaltning@brreg.no\",\n        \"telephone\" : \"+4775007500\"\n      },\n      \"example\" : {\n        \"no\" : \"* finger er et meronym av hånd\\r\\n * medlem er et meronym av forening\\r\\n * fornavn er et meronym av personnavn\"\n      },\n      \"seeAlso\" : [ \"https://jira.brreg.no/rest/api/2/issue/40658\" ],\n      \"publisher\" : {\n        \"uri\" : \"http://data.brreg.no/enhetsregisteret/enhet/974760673\",\n        \"name\" : \"REGISTERENHETEN I BRØNNØYSUND\",\n        \"orgPath\" : \"/STAT/912660680/974760673\",\n        \"prefLabel\" : {\n          \"no\" : \"REGISTERENHETEN I BRØNNØYSUND\"\n        }\n      },\n      \"harvest\" : {\n        \"firstHarvested\" : \"2019-11-29T14:48:48.202+0000\",\n        \"lastHarvested\" : \"2020-05-20T06:00:10.812+0000\"\n      }\n    }, {\n      \"id\" : \"8d641622-9bb9-4316-b2ab-b27e083f893f\",\n      \"uri\" : \"https://fellesdatakatalog.brreg.no/api/concepts/8d641622-9bb9-4316-b2ab-b27e083f893f\",\n      \"identifier\" : \"http://data.brreg.no/begrep/28296\",\n      \"application\" : [ ],\n      \"definition\" : {\n        \"text\" : {\n          \"nb\" : \"organisatorisk enhet eller person som danner arkiv som ledd i sin virksomhet\"\n        },\n        \"remark\" : {\n          \"nb\" : \"En arkivskaper som er en organisatorisk enhet, kan være et offentlig organ, en bedrift, en institusjon, en stiftelse og så videre eller en del av en slik enhet. En organisatorisk enhet kan være én arkivskaper og dermed ha ett arkiv (sentralarkiv), eller den kan ha flere arkivskapere (avdelinger, etater og så videre) som skaper hver sitt arkiv (underarkiver). \"\n        },\n        \"source\" : {\n          \"prefLabel\" : {\n            \"nb\" : \"Arkivverket (2016) Noark5-standarden [Internett]. Versjon 4.0 Standard for elektronisk arkiv. Tilgjengelig fra https://www.arkivverket.no/ [Lest 10. januar 2018]\"\n          }\n        },\n        \"sources\" : [ {\n          \"text\" : {\n            \"nb\" : \"Arkivverket (2016) Noark5-standarden [Internett]. Versjon 4.0 Standard for elektronisk arkiv. Tilgjengelig fra https://www.arkivverket.no/ [Lest 10. januar 2018]\"\n          }\n        } ]\n      },\n      \"subject\" : {\n        \"nb\" : \"Arkiv\"\n      },\n      \"prefLabel\" : {\n        \"nb\" : \"arkivskaper\"\n      },\n      \"altLabel\" : [ ],\n      \"hiddenLabel\" : [ ],\n      \"contactPoint\" : {\n        \"email\" : \"informasjonsforvaltning@brreg.no\",\n        \"telephone\" : \"+4775007500\"\n      },\n      \"example\" : {\n        \"no\" : \"Brønnøysundregistrene er et eksempel på en arkivskaper.\"\n      },\n      \"seeAlso\" : [ \"https://jira.brreg.no/rest/api/2/issue/28261\" ],\n      \"publisher\" : {\n        \"uri\" : \"http://data.brreg.no/enhetsregisteret/enhet/974760673\",\n        \"name\" : \"REGISTERENHETEN I BRØNNØYSUND\",\n        \"orgPath\" : \"/STAT/912660680/974760673\",\n        \"prefLabel\" : {\n          \"no\" : \"REGISTERENHETEN I BRØNNØYSUND\"\n        }\n      },\n      \"harvest\" : {\n        \"firstHarvested\" : \"2019-04-02T10:00:03.159+0000\",\n        \"lastHarvested\" : \"2020-05-20T06:00:10.657+0000\"\n      }\n    }, {\n      \"id\" : \"9908dcab-38fd-4219-9429-e2e9d7efdb08\",\n      \"uri\" : \"https://fellesdatakatalog.brreg.no/api/concepts/9908dcab-38fd-4219-9429-e2e9d7efdb08\",\n      \"identifier\" : \"http://data.brreg.no/begrep/49251\",\n      \"application\" : [ ],\n      \"definition\" : {\n        \"text\" : {\n          \"nb\" : \"en tre bokstavers unik og internasjonalt gyldig kode for valuta til et land\"\n        },\n        \"remark\" : {\n          \"nb\" : \"Valutakoden brukes typisk som forkortelse i handels- og betalingsdokumenter og for tollformål.\\r\\n\\r\\nKodene utvikles og vedlikeholdes av ISO, The International Organisation for Standardisation.\"\n        },\n        \"source\" : {\n          \"prefLabel\" : {\n            \"nb\" : \"ISO 4217:2015. Tilgjengelig fra https://www.iso.org/iso-4217-currency-codes.html [lest 09.03.2018]\"\n          }\n        },\n        \"sources\" : [ {\n          \"text\" : {\n            \"nb\" : \"ISO 4217:2015. Tilgjengelig fra https://www.iso.org/iso-4217-currency-codes.html [lest 09.03.2018]\"\n          }\n        } ]\n      },\n      \"subject\" : {\n        \"nb\" : \"Økonomi\"\n      },\n      \"prefLabel\" : {\n        \"nb\" : \"valutakode\"\n      },\n      \"altLabel\" : [ ],\n      \"hiddenLabel\" : [ ],\n      \"contactPoint\" : {\n        \"email\" : \"informasjonsforvaltning@brreg.no\",\n        \"telephone\" : \"+4775007500\"\n      },\n      \"example\" : {\n        \"no\" : \"USD, NOK\"\n      },\n      \"seeAlso\" : [ ],\n      \"publisher\" : {\n        \"uri\" : \"http://data.brreg.no/enhetsregisteret/enhet/974760673\",\n        \"name\" : \"REGISTERENHETEN I BRØNNØYSUND\",\n        \"orgPath\" : \"/STAT/912660680/974760673\",\n        \"prefLabel\" : {\n          \"no\" : \"REGISTERENHETEN I BRØNNØYSUND\"\n        }\n      },\n      \"harvest\" : {\n        \"firstHarvested\" : \"2019-04-02T10:00:03.159+0000\",\n        \"lastHarvested\" : \"2020-05-20T06:00:11.035+0000\"\n      }\n    }, {\n      \"id\" : \"ade9bd09-dc94-4c0f-9c6f-8e9c5a4f8b55\",\n      \"uri\" : \"https://fellesdatakatalog.brreg.no/api/concepts/ade9bd09-dc94-4c0f-9c6f-8e9c5a4f8b55\",\n      \"identifier\" : \"http://data.brreg.no/begrep/51737\",\n      \"application\" : [ ],\n      \"definition\" : {\n        \"text\" : {\n          \"nb\" : \"nedarvet bruksnavn, navn på en institusjon eller bygning eller grend brukt som del av den offisielle adressen\"\n        },\n        \"remark\" : {\n          \"nb\" : \"Eier kan kreve og kommunen kan tildele adressetilleggsnavn til en offisiell adresse etter vilkår i matrikkelforskriften § 54 og § 55. Hvilken regel den er tildelt etter skal registreres i matrikkelen (adressetilleggsnavnkilde)\\n\\nFor å kunne ta vare på bruksnavn av kulturvernmessig verdi er det åpnet for at vegadresser kan ha et adressetilleggsnavn som inngår i den offisielle adressen.\"\n        },\n        \"source\" : {\n          \"prefLabel\" : {\n            \"nb\" : \"Direktoratet for forvaltning og IKT. Adresse - felles informasjonsmodell. Oppdatert 6. desember 2017. Tilgjengelig fra: https://www.difi.no/fagomrader-og-tjenester/digitalisering-og-samordning/nasjonal-arkitektur/informasjonsforvaltning/adresse-felles-informasjonsmodell\"\n          }\n        },\n        \"sourceRelationship\" : \"sitatFraKilde\",\n        \"sources\" : [ {\n          \"text\" : {\n            \"nb\" : \"Direktoratet for forvaltning og IKT. Adresse - felles informasjonsmodell. Oppdatert 6. desember 2017. Tilgjengelig fra: https://www.difi.no/fagomrader-og-tjenester/digitalisering-og-samordning/nasjonal-arkitektur/informasjonsforvaltning/adresse-felles-informasjonsmodell\"\n          }\n        } ]\n      },\n      \"subject\" : {\n        \"nb\" : \"Adresse\"\n      },\n      \"prefLabel\" : {\n        \"nb\" : \"adressetilleggsnavn\"\n      },\n      \"altLabel\" : [ ],\n      \"hiddenLabel\" : [ ],\n      \"contactPoint\" : {\n        \"email\" : \"informasjonsforvaltning@brreg.no\",\n        \"telephone\" : \"+4775007500\"\n      },\n      \"seeAlso\" : [ ],\n      \"publisher\" : {\n        \"uri\" : \"http://data.brreg.no/enhetsregisteret/enhet/974760673\",\n        \"name\" : \"REGISTERENHETEN I BRØNNØYSUND\",\n        \"orgPath\" : \"/STAT/912660680/974760673\",\n        \"prefLabel\" : {\n          \"no\" : \"REGISTERENHETEN I BRØNNØYSUND\"\n        }\n      },\n      \"harvest\" : {\n        \"firstHarvested\" : \"2019-04-02T10:00:03.159+0000\",\n        \"lastHarvested\" : \"2020-05-20T06:00:10.781+0000\"\n      }\n    }, {\n      \"id\" : \"b37c916e-44c8-4f04-a870-2c6def51de1a\",\n      \"uri\" : \"https://fellesdatakatalog.brreg.no/api/concepts/b37c916e-44c8-4f04-a870-2c6def51de1a\",\n      \"identifier\" : \"http://data.brreg.no/begrep/48797\",\n      \"application\" : [ ],\n      \"definition\" : {\n        \"text\" : {\n          \"nb\" : \"formuesgodet som pantet er sikret i\"\n        },\n        \"source\" : {\n          \"prefLabel\" : {\n            \"nb\" : \"Pant, i: Jusleksikon. Tilgjengelig fra [https://jusleksikon.no/wiki/Pant] \"\n          }\n        },\n        \"sourceRelationship\" : \"basertPåKilde\",\n        \"sources\" : [ {\n          \"text\" : {\n            \"nb\" : \"Pant, i: Jusleksikon. Tilgjengelig fra [https://jusleksikon.no/wiki/Pant] \"\n          }\n        } ]\n      },\n      \"subject\" : {\n        \"nb\" : \"Panterett\"\n      },\n      \"prefLabel\" : {\n        \"nb\" : \"pantobjekt\"\n      },\n      \"altLabel\" : [ ],\n      \"hiddenLabel\" : [ ],\n      \"contactPoint\" : {\n        \"email\" : \"informasjonsforvaltning@brreg.no\",\n        \"telephone\" : \"+4775007500\"\n      },\n      \"example\" : {\n        \"no\" : \"Det som det kan tas pant i, for eksempel motorvogn, driftstilbehør, varelager, mv.\"\n      },\n      \"seeAlso\" : [ ],\n      \"publisher\" : {\n        \"uri\" : \"http://data.brreg.no/enhetsregisteret/enhet/974760673\",\n        \"name\" : \"REGISTERENHETEN I BRØNNØYSUND\",\n        \"orgPath\" : \"/STAT/912660680/974760673\",\n        \"prefLabel\" : {\n          \"no\" : \"REGISTERENHETEN I BRØNNØYSUND\"\n        }\n      },\n      \"harvest\" : {\n        \"firstHarvested\" : \"2019-04-02T10:00:03.159+0000\",\n        \"lastHarvested\" : \"2020-05-20T06:00:10.715+0000\"\n      }\n    }, {\n      \"id\" : \"3a2deaf3-c09a-487b-bb6a-92f1306cd709\",\n      \"uri\" : \"https://fellesdatakatalog.brreg.no/api/concepts/3a2deaf3-c09a-487b-bb6a-92f1306cd709\",\n      \"identifier\" : \"http://data.brreg.no/begrep/52201\",\n      \"application\" : [ ],\n      \"definition\" : {\n        \"text\" : {\n          \"nb\" : \"et nummer og en eventuell bokstav som entydig identifiserer eiendommer, anlegg, bygninger eller innganger til bygninger innenfor en adresserbar gate, veg, sti, plass eller område\"\n        },\n        \"source\" : {\n          \"prefLabel\" : {\n            \"nb\" : \"Direktoratet for forvaltning og IKT. Adresse - felles informasjonsmodell. Oppdatert 6. desember 2017. Tilgjengelig fra: https://www.difi.no/fagomrader-og-tjenester/digitalisering-og-samordning/nasjonal-arkitektur/informasjonsforvaltning/adresse-felles-informasjonsmodell \"\n          }\n        },\n        \"sourceRelationship\" : \"sitatFraKilde\",\n        \"sources\" : [ {\n          \"text\" : {\n            \"nb\" : \"Direktoratet for forvaltning og IKT. Adresse - felles informasjonsmodell. Oppdatert 6. desember 2017. Tilgjengelig fra: https://www.difi.no/fagomrader-og-tjenester/digitalisering-og-samordning/nasjonal-arkitektur/informasjonsforvaltning/adresse-felles-informasjonsmodell \"\n          }\n        } ]\n      },\n      \"subject\" : {\n        \"nb\" : \"Adresse\"\n      },\n      \"prefLabel\" : {\n        \"nb\" : \"adressenummer\"\n      },\n      \"altLabel\" : [ ],\n      \"hiddenLabel\" : [ ],\n      \"contactPoint\" : {\n        \"email\" : \"informasjonsforvaltning@brreg.no\",\n        \"telephone\" : \"+4775007500\"\n      },\n      \"seeAlso\" : [ \"https://jira.brreg.no/rest/api/2/issue/43192\" ],\n      \"publisher\" : {\n        \"uri\" : \"http://data.brreg.no/enhetsregisteret/enhet/974760673\",\n        \"name\" : \"REGISTERENHETEN I BRØNNØYSUND\",\n        \"orgPath\" : \"/STAT/912660680/974760673\",\n        \"prefLabel\" : {\n          \"no\" : \"REGISTERENHETEN I BRØNNØYSUND\"\n        }\n      },\n      \"harvest\" : {\n        \"firstHarvested\" : \"2019-04-02T10:00:03.159+0000\",\n        \"lastHarvested\" : \"2020-05-20T06:00:10.997+0000\"\n      }\n    } ]\n  },\n  \"page\" : {\n    \"size\" : 10,\n    \"totalElements\" : 242,\n    \"totalPages\" : 25,\n    \"number\" : 0\n  }\n}",
    "headers" : {
      "Server" : "nginx/1.17.9",
      "Date" : "Wed, 20 May 2020 07:08:47 GMT",
      "Content-Type" : "application/json;charset=UTF-8",
      "Vary" : [ "Accept-Encoding", "Accept, Accept-Encoding" ],
      "Via" : "1.1 google",
      "Alt-Svc" : "clear"
    }
  },
  "uuid" : "d16525b7-942f-4a16-89da-afc93c722c72",
  "persistent" : true,
  "insertionIndex" : 53
}