{
  "id" : "539e6245-3b91-41b2-80f9-8c7d2adf41dc",
  "name" : "concepts",
  "request" : {
    "url" : "/concepts?orgPath=/STAT/972417858/974760223",
    "method" : "GET"
  },
  "response" : {
    "status" : 200,
    "body" : "{\n  \"_embedded\" : {\n    \"concepts\" : [ {\n      \"id\" : \"0b26c720-c9a7-4e3c-b600-d6508ddf4993\",\n      \"uri\" : \"https://fellesdatakatalog.brreg.no/api/concepts/0b26c720-c9a7-4e3c-b600-d6508ddf4993\",\n      \"identifier\" : \"https://registrering-begrep-api.fellesdatakatalog.digdir.no/974760223/0b33f147-1d0a-4898-8344-481e1f443f10\",\n      \"application\" : [ ],\n      \"definition\" : {\n        \"text\" : {\n          \"nb\" : \"Skriftlig bekreftelse på at ansvarlig kontrollerende har kontrollert prosjekteringen innenfor sitt ansvarsområde, og erklærer at den er i overrensstemmelse med krav og tillatelser gitt i eller med hjemmel i plan- og bygningsloven\"\n        },\n        \"remark\" : {\n          \"nb\" : \"En kontrollerklæring dokumenterer den ferdig utførte kontrollen. Erklæringen skal sendes til ansvarlig søker og ligge til grunn for ferdigstillelse av gjennomføringsplanen. \"\n        },\n        \"source\" : {\n          \"prefLabel\" : {\n            \"nb\" : \"SAK10 § 1-2, punkt j, underpunkt 1\"\n          }\n        },\n        \"sourceRelationship\" : \"basertPåKilde\",\n        \"sources\" : [ {\n          \"text\" : {\n            \"nb\" : \"SAK10 § 1-2, punkt j, underpunkt 1\"\n          },\n          \"uri\" : \"https://dibk.no/byggeregler/sak/1/1/1-2/\"\n        } ]\n      },\n      \"prefLabel\" : {\n        \"nb\" : \"Kontrollerklæring for prosjektering\"\n      },\n      \"altLabel\" : [ ],\n      \"hiddenLabel\" : [ ],\n      \"seeAlso\" : [ ],\n      \"publisher\" : {\n        \"uri\" : \"http://data.brreg.no/enhetsregisteret/enhet/974760223\",\n        \"name\" : \"DIREKTORATET FOR BYGGKVALITET\",\n        \"orgPath\" : \"/STAT/972417858/974760223\",\n        \"prefLabel\" : {\n          \"no\" : \"DIREKTORATET FOR BYGGKVALITET\"\n        }\n      },\n      \"harvest\" : {\n        \"firstHarvested\" : \"2020-04-30T12:00:02.644+0000\",\n        \"lastHarvested\" : \"2020-05-20T06:02:53.827+0000\"\n      }\n    }, {\n      \"id\" : \"9fb1a967-1f2d-4e3a-b6c8-483f9fc953aa\",\n      \"uri\" : \"https://fellesdatakatalog.brreg.no/api/concepts/9fb1a967-1f2d-4e3a-b6c8-483f9fc953aa\",\n      \"identifier\" : \"https://registrering-begrep-api.fellesdatakatalog.digdir.no/974760223/f2bbae64-1ab1-493b-88da-daeb1dacf284\",\n      \"application\" : [ ],\n      \"definition\" : {\n        \"text\" : {\n          \"nb\" : \"Skriftlig bekreftelse på at ansvarlig kontrollerende har kontrollert utførelsen innenfor sitt ansvarsområde, og erklærer at den er i overrensstemmelse med produksjonsunderlaget, krav til utførelse og tillatelser gitt i eller med hjemmel i plan- og bygningsloven\"\n        },\n        \"remark\" : {\n          \"nb\" : \"En kontrollerklæring dokumenterer den ferdig utførte kontrollen. Erklæringen skal sendes til ansvarlig søker og ligge til grunn for ferdigstillelse av gjennomføringsplanen. \"\n        },\n        \"source\" : {\n          \"prefLabel\" : {\n            \"nb\" : \"SAK10 § 1-2, punkt j, underpunkt 2\"\n          }\n        },\n        \"sourceRelationship\" : \"basertPåKilde\",\n        \"sources\" : [ {\n          \"text\" : {\n            \"nb\" : \"SAK10 § 1-2, punkt j, underpunkt 2\"\n          },\n          \"uri\" : \"https://dibk.no/byggeregler/sak/1/1/1-2/\"\n        } ]\n      },\n      \"prefLabel\" : {\n        \"nb\" : \"Kontrollerklæring for utførelse\"\n      },\n      \"altLabel\" : [ ],\n      \"hiddenLabel\" : [ ],\n      \"seeAlso\" : [ ],\n      \"publisher\" : {\n        \"uri\" : \"http://data.brreg.no/enhetsregisteret/enhet/974760223\",\n        \"name\" : \"DIREKTORATET FOR BYGGKVALITET\",\n        \"orgPath\" : \"/STAT/972417858/974760223\",\n        \"prefLabel\" : {\n          \"no\" : \"DIREKTORATET FOR BYGGKVALITET\"\n        }\n      },\n      \"harvest\" : {\n        \"firstHarvested\" : \"2020-04-30T18:00:03.198+0000\",\n        \"lastHarvested\" : \"2020-05-20T06:02:54.919+0000\"\n      }\n    }, {\n      \"id\" : \"a6f18bc8-f1f3-4fcb-86d6-31c23ce457f0\",\n      \"uri\" : \"https://fellesdatakatalog.brreg.no/api/concepts/a6f18bc8-f1f3-4fcb-86d6-31c23ce457f0\",\n      \"identifier\" : \"https://registrering-begrep-api.fellesdatakatalog.digdir.no/974760223/b8cfa6b3-ec95-4cdc-b16e-11518d2213ec\",\n      \"application\" : [ ],\n      \"definition\" : {\n        \"text\" : {\n          \"nb\" : \"Manglende eller feilaktig oppfyllelse av krav\"\n        },\n        \"source\" : {\n          \"prefLabel\" : {\n            \"nb\" : \"Byggesaksforskriften, SAK10 § 1-2 k og NS EN ISO 9000:2015\"\n          }\n        },\n        \"sourceRelationship\" : \"basertPåKilde\",\n        \"sources\" : [ {\n          \"text\" : {\n            \"nb\" : \"Byggesaksforskriften, SAK10 § 1-2 k og NS EN ISO 9000:2015\"\n          },\n          \"uri\" : \"https://dibk.no/byggeregler/sak/1/1/1-2/\"\n        } ]\n      },\n      \"prefLabel\" : {\n        \"nb\" : \"Avvik\"\n      },\n      \"altLabel\" : [ ],\n      \"hiddenLabel\" : [ ],\n      \"seeAlso\" : [ ],\n      \"publisher\" : {\n        \"uri\" : \"http://data.brreg.no/enhetsregisteret/enhet/974760223\",\n        \"name\" : \"DIREKTORATET FOR BYGGKVALITET\",\n        \"orgPath\" : \"/STAT/972417858/974760223\",\n        \"prefLabel\" : {\n          \"no\" : \"DIREKTORATET FOR BYGGKVALITET\"\n        }\n      },\n      \"harvest\" : {\n        \"firstHarvested\" : \"2020-02-21T18:00:02.469+0000\",\n        \"lastHarvested\" : \"2020-05-20T06:02:54.391+0000\"\n      }\n    }, {\n      \"id\" : \"0ade0818-8a05-46d7-b5a2-7e52b2ecc696\",\n      \"uri\" : \"https://fellesdatakatalog.brreg.no/api/concepts/0ade0818-8a05-46d7-b5a2-7e52b2ecc696\",\n      \"identifier\" : \"https://registrering-begrep-api.fellesdatakatalog.digdir.no/974760223/30ad6d93-22a9-4285-9cc8-16febfdbc663\",\n      \"application\" : [ ],\n      \"definition\" : {\n        \"text\" : {\n          \"nb\" : \"Ansvarlig foretak som er tiltakshavers representant overfor kommunen, med ansvar for at søknaden inneholder nødvendige opplysninger for at kommunen skal kunne ta stilling til om tiltaket er i samsvar med bestemmelser og tillatelser gitt i eller i medhold av plan- og bygningsloven.\"\n        },\n        \"remark\" : {\n          \"nb\" : \"Øvrig tekst fra pbl § 23-4\"\n        },\n        \"source\" : {\n          \"prefLabel\" : {\n            \"nb\" : \"pbl § 23-4\"\n          }\n        },\n        \"sourceRelationship\" : \"basertPåKilde\",\n        \"sources\" : [ {\n          \"text\" : {\n            \"nb\" : \"pbl § 23-4\"\n          },\n          \"uri\" : \"https://lovdata.no/dokument/NL/lov/2008-06-27-71/KAPITTEL_4-4#KAPITTEL_4-4\"\n        } ]\n      },\n      \"prefLabel\" : {\n        \"nb\" : \"Ansvarlig søker\"\n      },\n      \"altLabel\" : [ ],\n      \"hiddenLabel\" : [ ],\n      \"seeAlso\" : [ ],\n      \"publisher\" : {\n        \"uri\" : \"http://data.brreg.no/enhetsregisteret/enhet/974760223\",\n        \"name\" : \"DIREKTORATET FOR BYGGKVALITET\",\n        \"orgPath\" : \"/STAT/972417858/974760223\",\n        \"prefLabel\" : {\n          \"no\" : \"DIREKTORATET FOR BYGGKVALITET\"\n        }\n      },\n      \"harvest\" : {\n        \"firstHarvested\" : \"2020-04-30T18:00:03.449+0000\",\n        \"lastHarvested\" : \"2020-05-20T06:02:55.354+0000\"\n      }\n    }, {\n      \"id\" : \"bb337492-791c-4ffa-ab39-8afc319e6026\",\n      \"uri\" : \"https://fellesdatakatalog.brreg.no/api/concepts/bb337492-791c-4ffa-ab39-8afc319e6026\",\n      \"identifier\" : \"https://registrering-begrep-api.fellesdatakatalog.digdir.no/974760223/8499ea59-d008-4b2a-8bba-e33719d4238f\",\n      \"application\" : [ ],\n      \"definition\" : {\n        \"text\" : {\n          \"nb\" : \"En rutine som beskriver hvordan foretaket vil sikre ivaretakelse av ansvar, plikter, oppgaver og etterlevelse av krav gitt i eller i medhold av plan- og bygningsloven. \"\n        },\n        \"remark\" : {\n          \"nb\" : \"Forklares i første avsnitt i SAK10\"\n        },\n        \"source\" : {\n          \"prefLabel\" : {\n            \"nb\" : \"SAK10 § 10-1\"\n          }\n        },\n        \"sourceRelationship\" : \"basertPåKilde\",\n        \"sources\" : [ {\n          \"text\" : {\n            \"nb\" : \"SAK10 § 10-1\"\n          },\n          \"uri\" : \"https://dibk.no/byggeregler/sak/3/10/10-1/\"\n        } ]\n      },\n      \"prefLabel\" : {\n        \"nb\" : \"Kvalitetssikringsrutine\"\n      },\n      \"altLabel\" : [ ],\n      \"hiddenLabel\" : [ ],\n      \"seeAlso\" : [ ],\n      \"publisher\" : {\n        \"uri\" : \"http://data.brreg.no/enhetsregisteret/enhet/974760223\",\n        \"name\" : \"DIREKTORATET FOR BYGGKVALITET\",\n        \"orgPath\" : \"/STAT/972417858/974760223\",\n        \"prefLabel\" : {\n          \"no\" : \"DIREKTORATET FOR BYGGKVALITET\"\n        }\n      },\n      \"harvest\" : {\n        \"firstHarvested\" : \"2020-04-30T18:00:03.525+0000\",\n        \"lastHarvested\" : \"2020-05-20T06:02:55.541+0000\"\n      }\n    }, {\n      \"id\" : \"e58655bb-8483-4c3f-b12c-de2856ce1496\",\n      \"uri\" : \"https://fellesdatakatalog.brreg.no/api/concepts/e58655bb-8483-4c3f-b12c-de2856ce1496\",\n      \"identifier\" : \"https://registrering-begrep-api.fellesdatakatalog.digdir.no/974760223/117d1eef-d170-4c9d-8d44-c2d173668449\",\n      \"application\" : [ ],\n      \"definition\" : {\n        \"text\" : {\n          \"nb\" : \"Med tiltak etter plan- og bygningsloven menes oppføring, riving, endring, herunder fasadeendringer, endret bruk og andre tiltak knyttet til bygninger, konstruksjoner og anlegg, samt terrenginngrep og opprettelse og endring av eiendom, jf. pbl § 20-1 første ledd bokstav a til m. Som tiltak regnes også annen virksomhet og endring av arealbruk som vil være i strid med arealformål, planbestemmelser og henynssoner.\"\n        },\n        \"source\" : {\n          \"prefLabel\" : {\n            \"nb\" : \"Plan- og bygningsloven, pbl § 1-6\"\n          }\n        },\n        \"sourceRelationship\" : \"basertPåKilde\",\n        \"sources\" : [ {\n          \"text\" : {\n            \"nb\" : \"Plan- og bygningsloven, pbl § 1-6\"\n          },\n          \"uri\" : \"https://lovdata.no/dokument/NL/lov/2008-06-27-71\"\n        } ]\n      },\n      \"prefLabel\" : {\n        \"nb\" : \"Tiltak\"\n      },\n      \"altLabel\" : [ ],\n      \"hiddenLabel\" : [ ],\n      \"seeAlso\" : [ ],\n      \"publisher\" : {\n        \"uri\" : \"http://data.brreg.no/enhetsregisteret/enhet/974760223\",\n        \"name\" : \"DIREKTORATET FOR BYGGKVALITET\",\n        \"orgPath\" : \"/STAT/972417858/974760223\",\n        \"prefLabel\" : {\n          \"no\" : \"DIREKTORATET FOR BYGGKVALITET\"\n        }\n      },\n      \"harvest\" : {\n        \"firstHarvested\" : \"2020-02-19T18:00:09.701+0000\",\n        \"lastHarvested\" : \"2020-05-20T06:02:54.305+0000\"\n      }\n    }, {\n      \"id\" : \"04a3fa0f-5976-4c12-992e-dfbb69c381f4\",\n      \"uri\" : \"https://fellesdatakatalog.brreg.no/api/concepts/04a3fa0f-5976-4c12-992e-dfbb69c381f4\",\n      \"identifier\" : \"https://registrering-begrep-api.fellesdatakatalog.digdir.no/974760223/0ef577ca-344e-467a-af25-3af09b6d80e4\",\n      \"application\" : [ ],\n      \"definition\" : {\n        \"text\" : {\n          \"nb\" : \"Skriftlig bekreftelse på at ansvarlig utførende har utført prosjekteringen innenfor sitt ansvarsområde i overrensstemmelse med produksjonsunderlaget, krav til utførelse og tillatelser gitt i eller med hjemmel i plan- og bygningsloven\"\n        },\n        \"source\" : {\n          \"prefLabel\" : {\n            \"nb\" : \"SAK10 § 1-2, punkt i, underpunkt 2\"\n          }\n        },\n        \"sourceRelationship\" : \"basertPåKilde\",\n        \"sources\" : [ {\n          \"text\" : {\n            \"nb\" : \"SAK10 § 1-2, punkt i, underpunkt 2\"\n          },\n          \"uri\" : \"https://dibk.no/byggeregler/sak/1/1/1-2/\"\n        } ]\n      },\n      \"prefLabel\" : {\n        \"nb\" : \"Samsvarserklæring for utførelse\"\n      },\n      \"altLabel\" : [ ],\n      \"hiddenLabel\" : [ ],\n      \"seeAlso\" : [ ],\n      \"publisher\" : {\n        \"uri\" : \"http://data.brreg.no/enhetsregisteret/enhet/974760223\",\n        \"name\" : \"DIREKTORATET FOR BYGGKVALITET\",\n        \"orgPath\" : \"/STAT/972417858/974760223\",\n        \"prefLabel\" : {\n          \"no\" : \"DIREKTORATET FOR BYGGKVALITET\"\n        }\n      },\n      \"harvest\" : {\n        \"firstHarvested\" : \"2020-04-30T18:00:02.905+0000\",\n        \"lastHarvested\" : \"2020-05-20T06:02:54.524+0000\"\n      }\n    }, {\n      \"id\" : \"220a9ee4-9ae1-4af7-9333-a8ac4ddedbc4\",\n      \"uri\" : \"https://fellesdatakatalog.brreg.no/api/concepts/220a9ee4-9ae1-4af7-9333-a8ac4ddedbc4\",\n      \"identifier\" : \"https://registrering-begrep-api.fellesdatakatalog.digdir.no/974760223/faa9c55b-c39c-44af-a9a1-e013e3d054f6\",\n      \"application\" : [ ],\n      \"definition\" : {\n        \"text\" : {\n          \"nb\" : \"Skriftlig bekreftelse på at ansvarlig prosjekterende har utført prosjekteringen innenfor sitt ansvarsområde i overrensstemmelse med krav og tillatelser gitt i eller med hjemmel i plan- og bygningsloven\"\n        },\n        \"source\" : {\n          \"prefLabel\" : {\n            \"nb\" : \"SAK10 § 1-2, punkt i, underpunkt 1\"\n          }\n        },\n        \"sourceRelationship\" : \"basertPåKilde\",\n        \"sources\" : [ {\n          \"text\" : {\n            \"nb\" : \"SAK10 § 1-2, punkt i, underpunkt 1\"\n          },\n          \"uri\" : \"https://dibk.no/byggeregler/sak/1/1/1-2/\"\n        } ]\n      },\n      \"prefLabel\" : {\n        \"nb\" : \"Samsvarserklæring for prosjektering\"\n      },\n      \"altLabel\" : [ ],\n      \"hiddenLabel\" : [ ],\n      \"seeAlso\" : [ ],\n      \"publisher\" : {\n        \"uri\" : \"http://data.brreg.no/enhetsregisteret/enhet/974760223\",\n        \"name\" : \"DIREKTORATET FOR BYGGKVALITET\",\n        \"orgPath\" : \"/STAT/972417858/974760223\",\n        \"prefLabel\" : {\n          \"no\" : \"DIREKTORATET FOR BYGGKVALITET\"\n        }\n      },\n      \"harvest\" : {\n        \"firstHarvested\" : \"2020-04-30T18:00:03.349+0000\",\n        \"lastHarvested\" : \"2020-05-20T06:02:55.125+0000\"\n      }\n    }, {\n      \"id\" : \"f60a69c8-e915-4d90-9cd2-6ae5b1bcbc11\",\n      \"uri\" : \"https://fellesdatakatalog.brreg.no/api/concepts/f60a69c8-e915-4d90-9cd2-6ae5b1bcbc11\",\n      \"identifier\" : \"https://registrering-begrep-api.fellesdatakatalog.digdir.no/974760223/217f72f0-ac26-4ff8-9609-7f445fecf2d6\",\n      \"application\" : [ ],\n      \"definition\" : {\n        \"text\" : {\n          \"nb\" : \"En samlet plan for gjennomføring av tiltaket, med synliggjøring av ansvarsområder, tiltaksklasser, ansvarlige foretak, gjennomføring av kontroll og ferdigstillelse av tiltaket\"\n        },\n        \"source\" : {\n          \"prefLabel\" : {\n            \"nb\" : \"Byggesaksforskriften, SAK10 § 1-2 g\"\n          }\n        },\n        \"sourceRelationship\" : \"basertPåKilde\",\n        \"sources\" : [ {\n          \"text\" : {\n            \"nb\" : \"Byggesaksforskriften, SAK10 § 1-2 g\"\n          },\n          \"uri\" : \"https://dibk.no/byggeregler/sak/1/1/1-2/\"\n        } ]\n      },\n      \"prefLabel\" : {\n        \"nb\" : \"Gjennomføringsplan\"\n      },\n      \"altLabel\" : [ ],\n      \"hiddenLabel\" : [ ],\n      \"seeAlso\" : [ ],\n      \"publisher\" : {\n        \"uri\" : \"http://data.brreg.no/enhetsregisteret/enhet/974760223\",\n        \"name\" : \"DIREKTORATET FOR BYGGKVALITET\",\n        \"orgPath\" : \"/STAT/972417858/974760223\",\n        \"prefLabel\" : {\n          \"no\" : \"DIREKTORATET FOR BYGGKVALITET\"\n        }\n      },\n      \"harvest\" : {\n        \"firstHarvested\" : \"2020-02-21T18:00:03.068+0000\",\n        \"lastHarvested\" : \"2020-05-20T06:02:54.615+0000\"\n      }\n    }, {\n      \"id\" : \"27a67260-5f00-4828-9ab1-4b9756e45ebe\",\n      \"uri\" : \"https://fellesdatakatalog.brreg.no/api/concepts/27a67260-5f00-4828-9ab1-4b9756e45ebe\",\n      \"identifier\" : \"https://registrering-begrep-api.fellesdatakatalog.digdir.no/974760223/a4d8712e-ee1e-44f2-893a-d4a45e4d7634\",\n      \"application\" : [ ],\n      \"definition\" : {\n        \"text\" : {\n          \"nb\" : \"Beskrivelse av innhold i en sentral godkjenning som bestemmes av fagområde, funksjon og tiltaksklasse\"\n        },\n        \"source\" : {\n          \"prefLabel\" : {\n            \"nb\" : \"Byggesaksforskriften, SAK10 § 1-2 c\"\n          }\n        },\n        \"sourceRelationship\" : \"basertPåKilde\",\n        \"sources\" : [ {\n          \"text\" : {\n            \"nb\" : \"Byggesaksforskriften, SAK10 § 1-2 c\"\n          },\n          \"uri\" : \"https://dibk.no/byggeregler/sak/1/1/1-2/\"\n        } ]\n      },\n      \"prefLabel\" : {\n        \"nb\" : \"Godkjenningsområde\"\n      },\n      \"altLabel\" : [ ],\n      \"hiddenLabel\" : [ ],\n      \"seeAlso\" : [ ],\n      \"publisher\" : {\n        \"uri\" : \"http://data.brreg.no/enhetsregisteret/enhet/974760223\",\n        \"name\" : \"DIREKTORATET FOR BYGGKVALITET\",\n        \"orgPath\" : \"/STAT/972417858/974760223\",\n        \"prefLabel\" : {\n          \"no\" : \"DIREKTORATET FOR BYGGKVALITET\"\n        }\n      },\n      \"harvest\" : {\n        \"firstHarvested\" : \"2020-02-21T18:00:02.957+0000\",\n        \"lastHarvested\" : \"2020-05-20T06:02:55.477+0000\"\n      }\n    } ]\n  },\n  \"page\" : {\n    \"size\" : 10,\n    \"totalElements\" : 18,\n    \"totalPages\" : 2,\n    \"number\" : 0\n  }\n}",
    "headers" : {
      "Server" : "nginx/1.17.9",
      "Date" : "Wed, 20 May 2020 07:08:48 GMT",
      "Content-Type" : "application/json;charset=UTF-8",
      "Vary" : [ "Accept-Encoding", "Accept, Accept-Encoding" ],
      "Via" : "1.1 google",
      "Alt-Svc" : "clear"
    }
  },
  "uuid" : "539e6245-3b91-41b2-80f9-8c7d2adf41dc",
  "persistent" : true,
  "insertionIndex" : 69
}