{
  "id" : "bc2a97a1-d7d2-43e4-9c38-8996c7d36328",
  "name" : "concepts",
  "request" : {
    "url" : "/concepts?orgPath=/STAT/972417858/991825827",
    "method" : "GET"
  },
  "response" : {
    "status" : 200,
    "body" : "{\n  \"_embedded\" : {\n    \"concepts\" : [ {\n      \"id\" : \"60bc2688-9822-4eac-b5e1-6f6a9da11fc9\",\n      \"uri\" : \"https://fellesdatakatalog.brreg.no/api/concepts/60bc2688-9822-4eac-b5e1-6f6a9da11fc9\",\n      \"identifier\" : \"https://begrep.difi.no/17\",\n      \"application\" : [ ],\n      \"definition\" : {\n        \"text\" : {\n          \"nb\" : \"den som er ansvarlig for de strategiske prinsippene som gir retning i bruk og forvaltning av en felleskomponent, og sikrer samordnet styring og utvikling av felleskomponenten.\"\n        },\n        \"source\" : {\n          \"prefLabel\" : {\n            \"nb\" : \"Nasjonale felleskomponenter i offentlig sektor (Rapport 2010:17)\"\n          }\n        },\n        \"sources\" : [ {\n          \"text\" : {\n            \"nb\" : \"Nasjonale felleskomponenter i offentlig sektor (Rapport 2010:17)\"\n          }\n        } ]\n      },\n      \"subject\" : {\n        \"nb\" : \"Felleskomponent\"\n      },\n      \"prefLabel\" : {\n        \"nb\" : \"Felleskomponenteier\"\n      },\n      \"altLabel\" : [ ],\n      \"hiddenLabel\" : [ ],\n      \"seeAlso\" : [ ],\n      \"publisher\" : {\n        \"uri\" : \"http://data.brreg.no/enhetsregisteret/enhet/991825827\",\n        \"name\" : \"DIGITALISERINGSDIREKTORATET\",\n        \"orgPath\" : \"/STAT/972417858/991825827\",\n        \"prefLabel\" : {\n          \"no\" : \"DIGITALISERINGSDIREKTORATET\"\n        }\n      },\n      \"harvest\" : {\n        \"firstHarvested\" : \"2019-04-02T10:00:07.185+0000\",\n        \"lastHarvested\" : \"2020-05-18T06:02:35.513+0000\"\n      }\n    }, {\n      \"id\" : \"54e07aaf-a544-43ec-88ff-4412809473e7\",\n      \"uri\" : \"https://fellesdatakatalog.brreg.no/api/concepts/54e07aaf-a544-43ec-88ff-4412809473e7\",\n      \"identifier\" : \"https://begrep.difi.no/2\",\n      \"application\" : [ ],\n      \"definition\" : {\n        \"text\" : {\n          \"nb\" : \"en beskrivelse av struktur og interaksjon mellom applikasjoner, gruppert i kapabiliteter som tilbyr viktige forretningsfunksjoner og håndterer dataressurser.\"\n        },\n        \"source\" : {\n          \"prefLabel\" : {\n            \"en\" : \"TOGAF v. 9.1 § 3.4 (Application architecture)\"\n          }\n        },\n        \"sources\" : [ {\n          \"text\" : {\n            \"en\" : \"TOGAF v. 9.1 § 3.4 (Application architecture)\"\n          }\n        } ]\n      },\n      \"subject\" : {\n        \"nb\" : \"Virksomhetsarkitektur\"\n      },\n      \"prefLabel\" : {\n        \"nb\" : \"Applikasjonsarkitektur\"\n      },\n      \"altLabel\" : [ ],\n      \"hiddenLabel\" : [ ],\n      \"seeAlso\" : [ ],\n      \"publisher\" : {\n        \"uri\" : \"http://data.brreg.no/enhetsregisteret/enhet/991825827\",\n        \"name\" : \"DIGITALISERINGSDIREKTORATET\",\n        \"orgPath\" : \"/STAT/972417858/991825827\",\n        \"prefLabel\" : {\n          \"no\" : \"DIGITALISERINGSDIREKTORATET\"\n        }\n      },\n      \"harvest\" : {\n        \"firstHarvested\" : \"2019-04-02T10:00:07.185+0000\",\n        \"lastHarvested\" : \"2020-05-18T06:02:35.651+0000\"\n      }\n    }, {\n      \"id\" : \"ea1b3afd-b0bf-4d8b-820a-ff472f139b70\",\n      \"uri\" : \"https://fellesdatakatalog.brreg.no/api/concepts/ea1b3afd-b0bf-4d8b-820a-ff472f139b70\",\n      \"identifier\" : \"https://begrep.difi.no/9\",\n      \"application\" : [ ],\n      \"definition\" : {\n        \"text\" : {\n          \"nb\" : \"en konseptuell struktur for innhold og prosess som brukes for å utvikle, implementere og forvalte en arkitektur.\"\n        },\n        \"source\" : {\n          \"prefLabel\" : {\n            \"en\" : \"TOGAF v. 9.1 § 3.13 (Architecture Framework)\"\n          }\n        },\n        \"sources\" : [ {\n          \"text\" : {\n            \"en\" : \"TOGAF v. 9.1 § 3.13 (Architecture Framework)\"\n          }\n        } ]\n      },\n      \"subject\" : {\n        \"nb\" : \"Virksomhetsarkitektur\"\n      },\n      \"prefLabel\" : {\n        \"nb\" : \"Arkitekturrammeverk\"\n      },\n      \"altLabel\" : [ ],\n      \"hiddenLabel\" : [ ],\n      \"seeAlso\" : [ ],\n      \"publisher\" : {\n        \"uri\" : \"http://data.brreg.no/enhetsregisteret/enhet/991825827\",\n        \"name\" : \"DIGITALISERINGSDIREKTORATET\",\n        \"orgPath\" : \"/STAT/972417858/991825827\",\n        \"prefLabel\" : {\n          \"no\" : \"DIGITALISERINGSDIREKTORATET\"\n        }\n      },\n      \"harvest\" : {\n        \"firstHarvested\" : \"2019-04-02T10:00:07.185+0000\",\n        \"lastHarvested\" : \"2020-05-18T06:02:35.825+0000\"\n      }\n    }, {\n      \"id\" : \"8ebe5b28-36a8-43db-9323-681252c39397\",\n      \"uri\" : \"https://fellesdatakatalog.brreg.no/api/concepts/8ebe5b28-36a8-43db-9323-681252c39397\",\n      \"identifier\" : \"https://begrep.difi.no/21\",\n      \"application\" : [ ],\n      \"definition\" : {\n        \"text\" : {\n          \"nb\" : \"struktur som beskriver de funksjoner, aktiviteter og/eller prosesser en virksomhet trenger for å drive tjeneste- eller myndighetsutøvelse.\"\n        },\n        \"sources\" : [ ]\n      },\n      \"subject\" : {\n        \"nb\" : \"Virksomhetsarkitektur\"\n      },\n      \"prefLabel\" : {\n        \"nb\" : \"Funksjonsområde\"\n      },\n      \"altLabel\" : [ ],\n      \"hiddenLabel\" : [ ],\n      \"seeAlso\" : [ ],\n      \"publisher\" : {\n        \"uri\" : \"http://data.brreg.no/enhetsregisteret/enhet/991825827\",\n        \"name\" : \"DIGITALISERINGSDIREKTORATET\",\n        \"orgPath\" : \"/STAT/972417858/991825827\",\n        \"prefLabel\" : {\n          \"no\" : \"DIGITALISERINGSDIREKTORATET\"\n        }\n      },\n      \"harvest\" : {\n        \"firstHarvested\" : \"2019-04-02T10:00:07.185+0000\",\n        \"lastHarvested\" : \"2020-05-18T06:02:35.733+0000\"\n      }\n    }, {\n      \"id\" : \"b11c4cbc-f7f8-4d12-bce9-e7b86e5853b8\",\n      \"uri\" : \"https://fellesdatakatalog.brreg.no/api/concepts/b11c4cbc-f7f8-4d12-bce9-e7b86e5853b8\",\n      \"identifier\" : \"https://begrep.difi.no/47\",\n      \"application\" : [ ],\n      \"definition\" : {\n        \"text\" : {\n          \"nb\" : \"handlingsmønster for personer og i virksomheter når de utveksler data, informasjon, kunnskap og funksjonalitet gjennom forretningsprosesser støttet av tilhørende IT-systemer.\"\n        },\n        \"sources\" : [ ]\n      },\n      \"prefLabel\" : {\n        \"nb\" : \"Samhandling\"\n      },\n      \"altLabel\" : [ ],\n      \"hiddenLabel\" : [ ],\n      \"seeAlso\" : [ ],\n      \"publisher\" : {\n        \"uri\" : \"http://data.brreg.no/enhetsregisteret/enhet/991825827\",\n        \"name\" : \"DIGITALISERINGSDIREKTORATET\",\n        \"orgPath\" : \"/STAT/972417858/991825827\",\n        \"prefLabel\" : {\n          \"no\" : \"DIGITALISERINGSDIREKTORATET\"\n        }\n      },\n      \"harvest\" : {\n        \"firstHarvested\" : \"2019-04-02T10:00:07.185+0000\",\n        \"lastHarvested\" : \"2020-05-18T06:02:35.547+0000\"\n      }\n    }, {\n      \"id\" : \"f224bb52-b421-4444-ae59-d31a23f0790c\",\n      \"uri\" : \"https://fellesdatakatalog.brreg.no/api/concepts/f224bb52-b421-4444-ae59-d31a23f0790c\",\n      \"identifier\" : \"https://begrep.difi.no/32\",\n      \"application\" : [ ],\n      \"definition\" : {\n        \"text\" : {\n          \"nb\" : \"en samling krav.\"\n        },\n        \"sources\" : [ ]\n      },\n      \"subject\" : {\n        \"nb\" : \"Virksomhetsarkitektur\"\n      },\n      \"prefLabel\" : {\n        \"nb\" : \"Kravbibliotek\"\n      },\n      \"altLabel\" : [ ],\n      \"hiddenLabel\" : [ ],\n      \"seeAlso\" : [ ],\n      \"publisher\" : {\n        \"uri\" : \"http://data.brreg.no/enhetsregisteret/enhet/991825827\",\n        \"name\" : \"DIGITALISERINGSDIREKTORATET\",\n        \"orgPath\" : \"/STAT/972417858/991825827\",\n        \"prefLabel\" : {\n          \"no\" : \"DIGITALISERINGSDIREKTORATET\"\n        }\n      },\n      \"harvest\" : {\n        \"firstHarvested\" : \"2019-04-02T10:00:07.185+0000\",\n        \"lastHarvested\" : \"2020-05-18T06:02:35.719+0000\"\n      }\n    }, {\n      \"id\" : \"b10f0b4c-cff0-4b89-9e22-28da82a740e1\",\n      \"uri\" : \"https://fellesdatakatalog.brreg.no/api/concepts/b10f0b4c-cff0-4b89-9e22-28da82a740e1\",\n      \"identifier\" : \"https://begrep.difi.no/49\",\n      \"application\" : [ ],\n      \"definition\" : {\n        \"text\" : {\n          \"nb\" : \"evne/kapabilitet personer, systemer og virksomheter har til å utføre samhandling.\"\n        },\n        \"sources\" : [ ]\n      },\n      \"prefLabel\" : {\n        \"nb\" : \"Samhandlingsevne\"\n      },\n      \"altLabel\" : [ ],\n      \"hiddenLabel\" : [ ],\n      \"seeAlso\" : [ ],\n      \"publisher\" : {\n        \"uri\" : \"http://data.brreg.no/enhetsregisteret/enhet/991825827\",\n        \"name\" : \"DIGITALISERINGSDIREKTORATET\",\n        \"orgPath\" : \"/STAT/972417858/991825827\",\n        \"prefLabel\" : {\n          \"no\" : \"DIGITALISERINGSDIREKTORATET\"\n        }\n      },\n      \"harvest\" : {\n        \"firstHarvested\" : \"2019-04-02T10:00:07.185+0000\",\n        \"lastHarvested\" : \"2020-05-18T06:02:35.457+0000\"\n      }\n    }, {\n      \"id\" : \"2a5a65b1-8498-42a3-b4e3-25395a60a2b0\",\n      \"uri\" : \"https://fellesdatakatalog.brreg.no/api/concepts/2a5a65b1-8498-42a3-b4e3-25395a60a2b0\",\n      \"identifier\" : \"https://begrep.difi.no/53\",\n      \"application\" : [ ],\n      \"definition\" : {\n        \"text\" : {\n          \"nb\" : \"digital tjeneste som tilbys sluttbrukere gjennom elektronisk medium som PC eller mobile enheter.\"\n        },\n        \"source\" : {\n          \"prefLabel\" : {\n            \"nb\" : \"EU-kommisjonen Digital Single Market\"\n          }\n        },\n        \"sources\" : [ {\n          \"text\" : {\n            \"nb\" : \"EU-kommisjonen Digital Single Market\"\n          }\n        } ]\n      },\n      \"subject\" : {\n        \"nb\" : \"Virksomhetsarkitektur\"\n      },\n      \"prefLabel\" : {\n        \"nb\" : \"Sluttbrukertjeneste\"\n      },\n      \"altLabel\" : [ ],\n      \"hiddenLabel\" : [ ],\n      \"seeAlso\" : [ ],\n      \"publisher\" : {\n        \"uri\" : \"http://data.brreg.no/enhetsregisteret/enhet/991825827\",\n        \"name\" : \"DIGITALISERINGSDIREKTORATET\",\n        \"orgPath\" : \"/STAT/972417858/991825827\",\n        \"prefLabel\" : {\n          \"no\" : \"DIGITALISERINGSDIREKTORATET\"\n        }\n      },\n      \"harvest\" : {\n        \"firstHarvested\" : \"2019-04-02T10:00:07.185+0000\",\n        \"lastHarvested\" : \"2020-05-18T06:02:35.845+0000\"\n      }\n    }, {\n      \"id\" : \"a8ee670a-e1d5-4f0e-be3d-7d0370a3f699\",\n      \"uri\" : \"https://fellesdatakatalog.brreg.no/api/concepts/a8ee670a-e1d5-4f0e-be3d-7d0370a3f699\",\n      \"identifier\" : \"https://begrep.difi.no/20\",\n      \"application\" : [ ],\n      \"definition\" : {\n        \"text\" : {\n          \"nb\" : \"støtter forretningskapabiliteter gjennom et eksplisitt beskrevet grensesnitt og er direkte styrt av en organisasjon.\"\n        },\n        \"source\" : {\n          \"prefLabel\" : {\n            \"en\" : \"TOGAF v. 9.1 § 3.25\"\n          }\n        },\n        \"sources\" : [ {\n          \"text\" : {\n            \"en\" : \"TOGAF v. 9.1 § 3.25\"\n          }\n        } ]\n      },\n      \"subject\" : {\n        \"nb\" : \"Virksomhetsarkitektur\"\n      },\n      \"prefLabel\" : {\n        \"nb\" : \"Forretningstjeneste\"\n      },\n      \"altLabel\" : [ ],\n      \"hiddenLabel\" : [ ],\n      \"seeAlso\" : [ ],\n      \"publisher\" : {\n        \"uri\" : \"http://data.brreg.no/enhetsregisteret/enhet/991825827\",\n        \"name\" : \"DIGITALISERINGSDIREKTORATET\",\n        \"orgPath\" : \"/STAT/972417858/991825827\",\n        \"prefLabel\" : {\n          \"no\" : \"DIGITALISERINGSDIREKTORATET\"\n        }\n      },\n      \"harvest\" : {\n        \"firstHarvested\" : \"2019-04-02T10:00:07.185+0000\",\n        \"lastHarvested\" : \"2020-05-18T06:02:35.930+0000\"\n      }\n    }, {\n      \"id\" : \"63ebf51e-f293-41f5-afb5-f525e7e1c149\",\n      \"uri\" : \"https://fellesdatakatalog.brreg.no/api/concepts/63ebf51e-f293-41f5-afb5-f525e7e1c149\",\n      \"identifier\" : \"https://begrep.difi.no/31\",\n      \"application\" : [ ],\n      \"definition\" : {\n        \"text\" : {\n          \"nb\" : \"et uttrykk for et behov som må dekkes av en spesifikk arkitektur eller arbeidspakke.\"\n        },\n        \"source\" : {\n          \"prefLabel\" : {\n            \"en\" : \"TOGAF v. 9.1 § 3.59\"\n          }\n        },\n        \"sources\" : [ {\n          \"text\" : {\n            \"en\" : \"TOGAF v. 9.1 § 3.59\"\n          }\n        } ]\n      },\n      \"subject\" : {\n        \"nb\" : \"Virksomhetsarkitektur\"\n      },\n      \"prefLabel\" : {\n        \"nb\" : \"Krav\"\n      },\n      \"altLabel\" : [ ],\n      \"hiddenLabel\" : [ ],\n      \"seeAlso\" : [ ],\n      \"publisher\" : {\n        \"uri\" : \"http://data.brreg.no/enhetsregisteret/enhet/991825827\",\n        \"name\" : \"DIGITALISERINGSDIREKTORATET\",\n        \"orgPath\" : \"/STAT/972417858/991825827\",\n        \"prefLabel\" : {\n          \"no\" : \"DIGITALISERINGSDIREKTORATET\"\n        }\n      },\n      \"harvest\" : {\n        \"firstHarvested\" : \"2019-04-02T10:00:07.185+0000\",\n        \"lastHarvested\" : \"2020-05-18T06:02:35.877+0000\"\n      }\n    } ]\n  },\n  \"page\" : {\n    \"size\" : 10,\n    \"totalElements\" : 38,\n    \"totalPages\" : 4,\n    \"number\" : 0\n  }\n}",
    "headers" : {
      "Server" : "nginx/1.17.9",
      "Date" : "Mon, 18 May 2020 10:12:38 GMT",
      "Content-Type" : "application/json;charset=UTF-8",
      "Vary" : [ "Accept-Encoding", "Accept, Accept-Encoding" ],
      "Via" : "1.1 google",
      "Alt-Svc" : "clear"
    }
  },
  "uuid" : "bc2a97a1-d7d2-43e4-9c38-8996c7d36328",
  "persistent" : true,
  "insertionIndex" : 71
}