{
  "id" : "26436523-d60b-4c0a-8ffd-a28fd259750b",
  "name" : "concepts",
  "request" : {
    "url" : "/concepts?orgPath=/STAT/972417866/961181399",
    "method" : "GET"
  },
  "response" : {
    "status" : 200,
    "body" : "{\n  \"_embedded\" : {\n    \"concepts\" : [ {\n      \"id\" : \"ed307f28-164a-40f9-beba-4fd9ffa70852\",\n      \"uri\" : \"https://fellesdatakatalog.brreg.no/api/concepts/ed307f28-164a-40f9-beba-4fd9ffa70852\",\n      \"identifier\" : \"https://registrering-begrep-api.fellesdatakatalog.digdir.no/961181399/821b40b3-edb9-40d1-919f-40d571757ddf\",\n      \"application\" : [ ],\n      \"definition\" : {\n        \"text\" : {\n          \"nn\" : \"dokument som vert til som lekk i ei verksemd\"\n        },\n        \"source\" : {\n          \"prefLabel\" : {\n            \"nb\" : \"lov 4. desember 1992 nr. 126 om arkiv\"\n          }\n        },\n        \"sourceRelationship\" : \"sitatFraKilde\",\n        \"sources\" : [ {\n          \"text\" : {\n            \"nb\" : \"lov 4. desember 1992 nr. 126 om arkiv\"\n          },\n          \"uri\" : \"https://lovdata.no/lov/1992-12-04-126/§2\"\n        } ]\n      },\n      \"prefLabel\" : {\n        \"nn\" : \"arkiv\"\n      },\n      \"altLabel\" : [ ],\n      \"hiddenLabel\" : [ ],\n      \"contactPoint\" : {\n        \"email\" : \"begrep@arkivverket.no\"\n      },\n      \"seeAlso\" : [ ],\n      \"publisher\" : {\n        \"uri\" : \"http://data.brreg.no/enhetsregisteret/enhet/961181399\",\n        \"name\" : \"ARKIVVERKET\",\n        \"orgPath\" : \"/STAT/972417866/961181399\",\n        \"prefLabel\" : {\n          \"no\" : \"ARKIVVERKET\"\n        }\n      },\n      \"harvest\" : {\n        \"firstHarvested\" : \"2019-11-27T13:20:59.506+0000\",\n        \"lastHarvested\" : \"2020-05-18T06:02:43.537+0000\"\n      }\n    }, {\n      \"id\" : \"a97008cf-f2c9-4d54-8ffe-5a5243a95d7c\",\n      \"uri\" : \"https://fellesdatakatalog.brreg.no/api/concepts/a97008cf-f2c9-4d54-8ffe-5a5243a95d7c\",\n      \"identifier\" : \"https://registrering-begrep-api.fellesdatakatalog.digdir.no/961181399/24143b44-1d91-4dbc-bb68-f2102d3b7579\",\n      \"application\" : [ ],\n      \"definition\" : {\n        \"text\" : {\n          \"nb\" : \"fysisk overføring av arkivmateriale til arkivdepot. Ved avlevering fra statlige organer til Arkivverket overføres råderetten over arkivet til Riksarkivaren.\"\n        },\n        \"source\" : {\n          \"prefLabel\" : {\n            \"nb\" : \"forskrift 19. desember 2017 nr. 2286 om utfyllende tekniske og arkivfaglige bestemmelser om behandling av offentlige arkiver\"\n          }\n        },\n        \"sourceRelationship\" : \"sitatFraKilde\",\n        \"sources\" : [ {\n          \"text\" : {\n            \"nb\" : \"forskrift 19. desember 2017 nr. 2286 om utfyllende tekniske og arkivfaglige bestemmelser om behandling av offentlige arkiver\"\n          },\n          \"uri\" : \"https://lovdata.no/forskrift/2017-12-19-2286/§5-2\"\n        } ]\n      },\n      \"prefLabel\" : {\n        \"nb\" : \"avlevering\"\n      },\n      \"altLabel\" : [ ],\n      \"hiddenLabel\" : [ ],\n      \"contactPoint\" : {\n        \"email\" : \"begrep@arkivverket.no\"\n      },\n      \"seeAlso\" : [ ],\n      \"publisher\" : {\n        \"uri\" : \"http://data.brreg.no/enhetsregisteret/enhet/961181399\",\n        \"name\" : \"ARKIVVERKET\",\n        \"orgPath\" : \"/STAT/972417866/961181399\",\n        \"prefLabel\" : {\n          \"no\" : \"ARKIVVERKET\"\n        }\n      },\n      \"harvest\" : {\n        \"firstHarvested\" : \"2019-11-27T13:20:59.778+0000\",\n        \"lastHarvested\" : \"2020-05-18T06:02:43.660+0000\"\n      }\n    }, {\n      \"id\" : \"62288f22-f74e-48ed-be7b-479b7677ef99\",\n      \"uri\" : \"https://fellesdatakatalog.brreg.no/api/concepts/62288f22-f74e-48ed-be7b-479b7677ef99\",\n      \"identifier\" : \"https://registrering-begrep-api.fellesdatakatalog.digdir.no/961181399/b4860633-a9ce-405a-abd7-bed978e0c13e\",\n      \"application\" : [ ],\n      \"definition\" : {\n        \"text\" : {\n          \"nb\" : \"offentlige organers administrative funksjoner knyttet til forvaltning av eget organ\"\n        },\n        \"source\" : {\n          \"prefLabel\" : {\n            \"nb\" : \"forskrift 19. desember 2017 nr. 2286 om utfyllende tekniske og arkivfaglige bestemmelser om behandling av offentlige arkiver\"\n          }\n        },\n        \"sourceRelationship\" : \"sitatFraKilde\",\n        \"sources\" : [ {\n          \"text\" : {\n            \"nb\" : \"forskrift 19. desember 2017 nr. 2286 om utfyllende tekniske og arkivfaglige bestemmelser om behandling av offentlige arkiver\"\n          },\n          \"uri\" : \"https://lovdata.no/forskrift/2017-12-19-2286/§7-2\"\n        } ]\n      },\n      \"prefLabel\" : {\n        \"nb\" : \"egenforvaltning\"\n      },\n      \"altLabel\" : [ ],\n      \"hiddenLabel\" : [ ],\n      \"contactPoint\" : {\n        \"email\" : \"begrep@arkivverket.no\"\n      },\n      \"seeAlso\" : [ ],\n      \"publisher\" : {\n        \"uri\" : \"http://data.brreg.no/enhetsregisteret/enhet/961181399\",\n        \"name\" : \"ARKIVVERKET\",\n        \"orgPath\" : \"/STAT/972417866/961181399\",\n        \"prefLabel\" : {\n          \"no\" : \"ARKIVVERKET\"\n        }\n      },\n      \"harvest\" : {\n        \"firstHarvested\" : \"2019-11-27T13:20:59.420+0000\",\n        \"lastHarvested\" : \"2020-05-18T06:02:43.605+0000\"\n      }\n    }, {\n      \"id\" : \"c846ba3b-1c21-4ec1-8849-aa87cfca1689\",\n      \"uri\" : \"https://fellesdatakatalog.brreg.no/api/concepts/c846ba3b-1c21-4ec1-8849-aa87cfca1689\",\n      \"identifier\" : \"https://registrering-begrep-api.fellesdatakatalog.digdir.no/961181399/3eb46a60-3d7d-4471-a7b3-e8fd1ad2e01d\",\n      \"application\" : [ ],\n      \"definition\" : {\n        \"text\" : {\n          \"nb\" : \"dokumentasjon skapt som ledd i utførelsen av en enkeltstående oppgave eller arbeidsprosess\"\n        },\n        \"source\" : {\n          \"prefLabel\" : {\n            \"nb\" : \"forskrift 19. desember 2017 nr. 2286 om utfyllende tekniske og arkivfaglige bestemmelser om behandling av offentlige arkiver\"\n          }\n        },\n        \"sourceRelationship\" : \"sitatFraKilde\",\n        \"sources\" : [ {\n          \"text\" : {\n            \"nb\" : \"forskrift 19. desember 2017 nr. 2286 om utfyllende tekniske og arkivfaglige bestemmelser om behandling av offentlige arkiver\"\n          },\n          \"uri\" : \"https://lovdata.no/forskrift/2017-12-19-2286/§7-2\"\n        } ]\n      },\n      \"prefLabel\" : {\n        \"nb\" : \"sak\"\n      },\n      \"altLabel\" : [ ],\n      \"hiddenLabel\" : [ ],\n      \"contactPoint\" : {\n        \"email\" : \"begrep@arkivverket.no\"\n      },\n      \"seeAlso\" : [ ],\n      \"publisher\" : {\n        \"uri\" : \"http://data.brreg.no/enhetsregisteret/enhet/961181399\",\n        \"name\" : \"ARKIVVERKET\",\n        \"orgPath\" : \"/STAT/972417866/961181399\",\n        \"prefLabel\" : {\n          \"no\" : \"ARKIVVERKET\"\n        }\n      },\n      \"harvest\" : {\n        \"firstHarvested\" : \"2019-11-27T13:20:59.817+0000\",\n        \"lastHarvested\" : \"2020-05-18T06:02:43.552+0000\"\n      }\n    }, {\n      \"id\" : \"7b617507-60b3-4c6c-a059-a2dc3eddf4be\",\n      \"uri\" : \"https://fellesdatakatalog.brreg.no/api/concepts/7b617507-60b3-4c6c-a059-a2dc3eddf4be\",\n      \"identifier\" : \"https://registrering-begrep-api.fellesdatakatalog.digdir.no/961181399/c817d592-1247-41a3-a56d-180bbd9c34ee\",\n      \"application\" : [ ],\n      \"definition\" : {\n        \"text\" : {\n          \"nb\" : \"å ta ut og destruere arkivmateriale som ikke skal bevares\"\n        },\n        \"source\" : {\n          \"prefLabel\" : {\n            \"nb\" : \"forskrift 19. desember 2017 nr. 2286 om utfyllende tekniske og arkivfaglige bestemmelser om behandling av offentlige arkiver\"\n          }\n        },\n        \"sourceRelationship\" : \"sitatFraKilde\",\n        \"sources\" : [ {\n          \"text\" : {\n            \"nb\" : \"forskrift 19. desember 2017 nr. 2286 om utfyllende tekniske og arkivfaglige bestemmelser om behandling av offentlige arkiver\"\n          },\n          \"uri\" : \"https://lovdata.no/forskrift/2017-12-19-2286/§7-2\"\n        } ]\n      },\n      \"prefLabel\" : {\n        \"nb\" : \"kassasjon\"\n      },\n      \"altLabel\" : [ ],\n      \"hiddenLabel\" : [ ],\n      \"contactPoint\" : {\n        \"email\" : \"begrep@arkivverket.no\"\n      },\n      \"seeAlso\" : [ ],\n      \"publisher\" : {\n        \"uri\" : \"http://data.brreg.no/enhetsregisteret/enhet/961181399\",\n        \"name\" : \"ARKIVVERKET\",\n        \"orgPath\" : \"/STAT/972417866/961181399\",\n        \"prefLabel\" : {\n          \"no\" : \"ARKIVVERKET\"\n        }\n      },\n      \"harvest\" : {\n        \"firstHarvested\" : \"2020-01-17T07:43:24.478+0000\",\n        \"lastHarvested\" : \"2020-05-18T06:02:43.707+0000\"\n      }\n    }, {\n      \"id\" : \"44d5198d-8821-4a57-b703-ed4232cd5489\",\n      \"uri\" : \"https://fellesdatakatalog.brreg.no/api/concepts/44d5198d-8821-4a57-b703-ed4232cd5489\",\n      \"identifier\" : \"https://registrering-begrep-api.fellesdatakatalog.digdir.no/961181399/491c5baf-30de-4427-85b9-158ad4fde201\",\n      \"application\" : [ ],\n      \"definition\" : {\n        \"text\" : {\n          \"nn\" : \"arkiv skapt av statleg organ\"\n        },\n        \"source\" : {\n          \"prefLabel\" : {\n            \"nb\" : \"lov 4. desember 1992 nr. 126 om arkiv\"\n          }\n        },\n        \"sourceRelationship\" : \"sitatFraKilde\",\n        \"sources\" : [ {\n          \"text\" : {\n            \"nb\" : \"lov 4. desember 1992 nr. 126 om arkiv\"\n          },\n          \"uri\" : \"https://lovdata.no/lov/1992-12-04-126/§2\"\n        } ]\n      },\n      \"prefLabel\" : {\n        \"nn\" : \"statleg arkiv\"\n      },\n      \"altLabel\" : [ ],\n      \"hiddenLabel\" : [ ],\n      \"contactPoint\" : {\n        \"email\" : \"begrep@arkivverket.no\"\n      },\n      \"seeAlso\" : [ ],\n      \"publisher\" : {\n        \"uri\" : \"http://data.brreg.no/enhetsregisteret/enhet/961181399\",\n        \"name\" : \"ARKIVVERKET\",\n        \"orgPath\" : \"/STAT/972417866/961181399\",\n        \"prefLabel\" : {\n          \"no\" : \"ARKIVVERKET\"\n        }\n      },\n      \"harvest\" : {\n        \"firstHarvested\" : \"2019-11-27T13:20:59.829+0000\",\n        \"lastHarvested\" : \"2020-05-18T06:02:43.780+0000\"\n      }\n    }, {\n      \"id\" : \"b86f7f4a-fc5e-4639-adf1-416ca12c2351\",\n      \"uri\" : \"https://fellesdatakatalog.brreg.no/api/concepts/b86f7f4a-fc5e-4639-adf1-416ca12c2351\",\n      \"identifier\" : \"https://registrering-begrep-api.fellesdatakatalog.digdir.no/961181399/2e57e1ba-b3cb-44cb-b5de-0f53ddb91bda\",\n      \"application\" : [ ],\n      \"definition\" : {\n        \"text\" : {\n          \"nb\" : \"identifikasjonsnummer for registrerte saker og dokumenter i et arkivsystem\"\n        },\n        \"sourceRelationship\" : \"egendefinert\",\n        \"sources\" : [ ]\n      },\n      \"prefLabel\" : {\n        \"nb\" : \"saks- og dokumentnummer\"\n      },\n      \"altLabel\" : [ ],\n      \"hiddenLabel\" : [ ],\n      \"contactPoint\" : {\n        \"email\" : \"begrep@arkivverket.no\"\n      },\n      \"seeAlso\" : [ ],\n      \"publisher\" : {\n        \"uri\" : \"http://data.brreg.no/enhetsregisteret/enhet/961181399\",\n        \"name\" : \"ARKIVVERKET\",\n        \"orgPath\" : \"/STAT/972417866/961181399\",\n        \"prefLabel\" : {\n          \"no\" : \"ARKIVVERKET\"\n        }\n      },\n      \"harvest\" : {\n        \"firstHarvested\" : \"2019-12-19T13:52:53.324+0000\",\n        \"lastHarvested\" : \"2020-05-18T06:02:43.688+0000\"\n      }\n    }, {\n      \"id\" : \"7800a143-8854-423d-a337-ba6da9d37bfa\",\n      \"uri\" : \"https://fellesdatakatalog.brreg.no/api/concepts/7800a143-8854-423d-a337-ba6da9d37bfa\",\n      \"identifier\" : \"https://registrering-begrep-api.fellesdatakatalog.digdir.no/961181399/5181097f-090c-4dcb-bc50-b4f83e40adab\",\n      \"application\" : [ ],\n      \"definition\" : {\n        \"text\" : {\n          \"nb\" : \"et ansvarsområde som en virksomhet forvalter for å oppnå bestemte mål, og som består av en gruppe arbeidsprosesser\"\n        },\n        \"source\" : {\n          \"prefLabel\" : {\n            \"nb\" : \"forskrift 19. desember 2017 nr. 2286 om utfyllende tekniske og arkivfaglige bestemmelser om behandling av offentlige arkiver\"\n          }\n        },\n        \"sourceRelationship\" : \"sitatFraKilde\",\n        \"sources\" : [ {\n          \"text\" : {\n            \"nb\" : \"forskrift 19. desember 2017 nr. 2286 om utfyllende tekniske og arkivfaglige bestemmelser om behandling av offentlige arkiver\"\n          },\n          \"uri\" : \"https://lovdata.no/forskrift/2017-12-19-2286/§7-2\"\n        } ]\n      },\n      \"prefLabel\" : {\n        \"nb\" : \"funksjon\"\n      },\n      \"altLabel\" : [ ],\n      \"hiddenLabel\" : [ ],\n      \"contactPoint\" : {\n        \"email\" : \"begrep@arkivverket.no\"\n      },\n      \"seeAlso\" : [ ],\n      \"publisher\" : {\n        \"uri\" : \"http://data.brreg.no/enhetsregisteret/enhet/961181399\",\n        \"name\" : \"ARKIVVERKET\",\n        \"orgPath\" : \"/STAT/972417866/961181399\",\n        \"prefLabel\" : {\n          \"no\" : \"ARKIVVERKET\"\n        }\n      },\n      \"harvest\" : {\n        \"firstHarvested\" : \"2019-11-27T13:20:59.646+0000\",\n        \"lastHarvested\" : \"2020-05-18T06:02:44.863+0000\"\n      }\n    }, {\n      \"id\" : \"94c44cff-c931-4d4c-92f5-d7291045e615\",\n      \"uri\" : \"https://fellesdatakatalog.brreg.no/api/concepts/94c44cff-c931-4d4c-92f5-d7291045e615\",\n      \"identifier\" : \"https://registrering-begrep-api.fellesdatakatalog.digdir.no/961181399/bbc0e673-f0d1-4e89-beba-c40ff4d3f124\",\n      \"application\" : [ ],\n      \"definition\" : {\n        \"text\" : {\n          \"nb\" : \"det datainnhold som skal hentes ut av et system og inngå som arkivversjonens hoveddel\"\n        },\n        \"source\" : {\n          \"prefLabel\" : {\n            \"nb\" : \"forskrift 19. desember 2017 nr. 2286 om utfyllende tekniske og arkivfaglige bestemmelser om behandling av offentlige arkiver\"\n          }\n        },\n        \"sourceRelationship\" : \"sitatFraKilde\",\n        \"sources\" : [ {\n          \"text\" : {\n            \"nb\" : \"forskrift 19. desember 2017 nr. 2286 om utfyllende tekniske og arkivfaglige bestemmelser om behandling av offentlige arkiver\"\n          },\n          \"uri\" : \"https://lovdata.no/forskrift/2017-12-19-2286/§5-2\"\n        } ]\n      },\n      \"prefLabel\" : {\n        \"nb\" : \"arkivuttrekk\"\n      },\n      \"altLabel\" : [ ],\n      \"hiddenLabel\" : [ ],\n      \"contactPoint\" : {\n        \"email\" : \"begrep@arkivverket.no\"\n      },\n      \"seeAlso\" : [ ],\n      \"publisher\" : {\n        \"uri\" : \"http://data.brreg.no/enhetsregisteret/enhet/961181399\",\n        \"name\" : \"ARKIVVERKET\",\n        \"orgPath\" : \"/STAT/972417866/961181399\",\n        \"prefLabel\" : {\n          \"no\" : \"ARKIVVERKET\"\n        }\n      },\n      \"harvest\" : {\n        \"firstHarvested\" : \"2019-11-27T13:20:59.395+0000\",\n        \"lastHarvested\" : \"2020-05-18T06:02:44.246+0000\"\n      }\n    }, {\n      \"id\" : \"26ec262f-6194-4bd1-b117-9e1f7b741ba0\",\n      \"uri\" : \"https://fellesdatakatalog.brreg.no/api/concepts/26ec262f-6194-4bd1-b117-9e1f7b741ba0\",\n      \"identifier\" : \"https://registrering-begrep-api.fellesdatakatalog.digdir.no/961181399/35b21126-c2ae-474c-9665-a3dc1288ab31\",\n      \"application\" : [ ],\n      \"definition\" : {\n        \"text\" : {\n          \"nb\" : \"system bestående av klasser som beskriver arkivskapers funksjoner og aktiviteter\"\n        },\n        \"source\" : {\n          \"prefLabel\" : {\n            \"nb\" : \"Noark 5\"\n          }\n        },\n        \"sourceRelationship\" : \"sitatFraKilde\",\n        \"sources\" : [ {\n          \"text\" : {\n            \"nb\" : \"Noark 5\"\n          },\n          \"uri\" : \"\"\n        } ]\n      },\n      \"prefLabel\" : {\n        \"nb\" : \"klassifikasjonssystem\"\n      },\n      \"altLabel\" : [ ],\n      \"hiddenLabel\" : [ ],\n      \"contactPoint\" : {\n        \"email\" : \"begrep@arkivverket.no\"\n      },\n      \"example\" : {\n        \"nb\" : \"arkivnøkkel, K-kodesystemet\"\n      },\n      \"seeAlso\" : [ ],\n      \"publisher\" : {\n        \"uri\" : \"http://data.brreg.no/enhetsregisteret/enhet/961181399\",\n        \"name\" : \"ARKIVVERKET\",\n        \"orgPath\" : \"/STAT/972417866/961181399\",\n        \"prefLabel\" : {\n          \"no\" : \"ARKIVVERKET\"\n        }\n      },\n      \"harvest\" : {\n        \"firstHarvested\" : \"2019-12-19T14:03:51.795+0000\",\n        \"lastHarvested\" : \"2020-05-18T06:02:44.418+0000\"\n      }\n    } ]\n  },\n  \"page\" : {\n    \"size\" : 10,\n    \"totalElements\" : 41,\n    \"totalPages\" : 5,\n    \"number\" : 0\n  }\n}",
    "headers" : {
      "Server" : "nginx/1.17.9",
      "Date" : "Mon, 18 May 2020 10:12:38 GMT",
      "Content-Type" : "application/json;charset=UTF-8",
      "Vary" : [ "Accept-Encoding", "Accept, Accept-Encoding" ],
      "Via" : "1.1 google",
      "Alt-Svc" : "clear"
    }
  },
  "uuid" : "26436523-d60b-4c0a-8ffd-a28fd259750b",
  "persistent" : true,
  "insertionIndex" : 79
}