{
  "_embedded": {
    "concepts": [
      {
        "id": "b970c1af-ab11-4016-8e1e-090ba61d74dc",
        "prefLabel": {
          "nb": "avskiltingsdato"
        },
        "publisher": {
          "uri": "http://data.brreg.no/enhetsregisteret/enhet/974761076"
        }
      },
      {
        "id": "b970c1af-ab11-4016-8e1e-090ba61d74dc",
        "prefLabel": {
          "nb": "avskiltingsdato"
        },
        "publisher": {
          "uri": "http://data.brreg.no/enhetsregisteret/enhet/974761076"
        }
      }

    ]

  },
  "page": {
    "size": 1000,
    "totalElements": 4171,
    "totalPages": 5,
    "number": 0
  }
}